%YAML 1.1
%TAG !u! tag:unity3d.com,2011:
--- !u!319 &31900000
AvatarMask:
  m_ObjectHideFlags: 0
  m_CorrespondingSourceObject: {fileID: 0}
  m_PrefabInstance: {fileID: 0}
  m_PrefabAsset: {fileID: 0}
  m_Name: ArmMask
  m_Mask: 00000000000000000000000000000000000000000100000001000000010000000100000000000000000000000000000000000000
  m_Elements:
  - m_Path: 
    m_Weight: 1
  - m_Path: afro01Mesh
    m_Weight: 0
  - m_Path: eyebrow012Mesh
    m_Weight: 0
  - m_Path: fafra32h157w80Mesh
    m_Weight: 0
  - m_Path: high-polyMesh
    m_Weight: 0
  - m_Path: shoes05Mesh
    m_Weight: 0
  - m_Path: Suit
    m_Weight: 0
  - m_Path: Unity compliant skeleton
    m_Weight: 0
  - m_Path: Unity compliant skeleton/hips
    m_Weight: 0
  - m_Path: Unity compliant skeleton/hips/spine
    m_Weight: 0
  - m_Path: Unity compliant skeleton/hips/spine/chest
    m_Weight: 0
  - m_Path: Unity compliant skeleton/hips/spine/chest/chest1
    m_Weight: 0
  - m_Path: Unity compliant skeleton/hips/spine/chest/chest1/neck
    m_Weight: 0
  - m_Path: Unity compliant skeleton/hips/spine/chest/chest1/neck/head
    m_Weight: 0
  - m_Path: Unity compliant skeleton/hips/spine/chest/chest1/neck/head/eye.L
    m_Weight: 0
  - m_Path: Unity compliant skeleton/hips/spine/chest/chest1/neck/head/eye.R
    m_Weight: 0
  - m_Path: Unity compliant skeleton/hips/spine/chest/chest1/neck/head/lolid.L
    m_Weight: 0
  - m_Path: Unity compliant skeleton/hips/spine/chest/chest1/neck/head/lolid.R
    m_Weight: 0
  - m_Path: Unity compliant skeleton/hips/spine/chest/chest1/neck/head/uplid.L
    m_Weight: 0
  - m_Path: Unity compliant skeleton/hips/spine/chest/chest1/neck/head/uplid.R
    m_Weight: 0
  - m_Path: Unity compliant skeleton/hips/spine/chest/chest1/shoulder.L
    m_Weight: 0
  - m_Path: Unity compliant skeleton/hips/spine/chest/chest1/shoulder.L/upper_arm.L
    m_Weight: 0
  - m_Path: Unity compliant skeleton/hips/spine/chest/chest1/shoulder.L/upper_arm.L/forearm.L
    m_Weight: 0
  - m_Path: Unity compliant skeleton/hips/spine/chest/chest1/shoulder.L/upper_arm.L/forearm.L/hand.L
    m_Weight: 0
  - m_Path: Unity compliant skeleton/hips/spine/chest/chest1/shoulder.L/upper_arm.L/forearm.L/hand.L/f_index.01.L
    m_Weight: 0
  - m_Path: Unity compliant skeleton/hips/spine/chest/chest1/shoulder.L/upper_arm.L/forearm.L/hand.L/f_index.01.L/f_index.02.L
    m_Weight: 0
  - m_Path: Unity compliant skeleton/hips/spine/chest/chest1/shoulder.L/upper_arm.L/forearm.L/hand.L/f_index.01.L/f_index.02.L/f_index.03.L
    m_Weight: 0
  - m_Path: Unity compliant skeleton/hips/spine/chest/chest1/shoulder.L/upper_arm.L/forearm.L/hand.L/f_middle.01.L
    m_Weight: 0
  - m_Path: Unity compliant skeleton/hips/spine/chest/chest1/shoulder.L/upper_arm.L/forearm.L/hand.L/f_middle.01.L/f_middle.02.L
    m_Weight: 0
  - m_Path: Unity compliant skeleton/hips/spine/chest/chest1/shoulder.L/upper_arm.L/forearm.L/hand.L/f_middle.01.L/f_middle.02.L/f_middle.03.L
    m_Weight: 0
  - m_Path: Unity compliant skeleton/hips/spine/chest/chest1/shoulder.L/upper_arm.L/forearm.L/hand.L/f_pinky.01.L
    m_Weight: 0
  - m_Path: Unity compliant skeleton/hips/spine/chest/chest1/shoulder.L/upper_arm.L/forearm.L/hand.L/f_pinky.01.L/f_pinky.02.L
    m_Weight: 0
  - m_Path: Unity compliant skeleton/hips/spine/chest/chest1/shoulder.L/upper_arm.L/forearm.L/hand.L/f_pinky.01.L/f_pinky.02.L/f_pinky.03.L
    m_Weight: 0
  - m_Path: Unity compliant skeleton/hips/spine/chest/chest1/shoulder.L/upper_arm.L/forearm.L/hand.L/f_ring.01.L
    m_Weight: 0
  - m_Path: Unity compliant skeleton/hips/spine/chest/chest1/shoulder.L/upper_arm.L/forearm.L/hand.L/f_ring.01.L/f_ring.02.L
    m_Weight: 0
  - m_Path: Unity compliant skeleton/hips/spine/chest/chest1/shoulder.L/upper_arm.L/forearm.L/hand.L/f_ring.01.L/f_ring.02.L/f_ring.03.L
    m_Weight: 0
  - m_Path: Unity compliant skeleton/hips/spine/chest/chest1/shoulder.L/upper_arm.L/forearm.L/hand.L/thumb.01.L
    m_Weight: 0
  - m_Path: Unity compliant skeleton/hips/spine/chest/chest1/shoulder.L/upper_arm.L/forearm.L/hand.L/thumb.01.L/thumb.02.L
    m_Weight: 0
  - m_Path: Unity compliant skeleton/hips/spine/chest/chest1/shoulder.L/upper_arm.L/forearm.L/hand.L/thumb.01.L/thumb.02.L/thumb.03.L
    m_Weight: 0
  - m_Path: Unity compliant skeleton/hips/spine/chest/chest1/shoulder.R
    m_Weight: 0
  - m_Path: Unity compliant skeleton/hips/spine/chest/chest1/shoulder.R/upper_arm.R
    m_Weight: 0
  - m_Path: Unity compliant skeleton/hips/spine/chest/chest1/shoulder.R/upper_arm.R/forearm.R
    m_Weight: 0
  - m_Path: Unity compliant skeleton/hips/spine/chest/chest1/shoulder.R/upper_arm.R/forearm.R/hand.R
    m_Weight: 0
  - m_Path: Unity compliant skeleton/hips/spine/chest/chest1/shoulder.R/upper_arm.R/forearm.R/hand.R/f_index.01.R
    m_Weight: 0
  - m_Path: Unity compliant skeleton/hips/spine/chest/chest1/shoulder.R/upper_arm.R/forearm.R/hand.R/f_index.01.R/f_index.02.R
    m_Weight: 0
  - m_Path: Unity compliant skeleton/hips/spine/chest/chest1/shoulder.R/upper_arm.R/forearm.R/hand.R/f_index.01.R/f_index.02.R/f_index.03.R
    m_Weight: 0
  - m_Path: Unity compliant skeleton/hips/spine/chest/chest1/shoulder.R/upper_arm.R/forearm.R/hand.R/f_middle.01.R
    m_Weight: 0
  - m_Path: Unity compliant skeleton/hips/spine/chest/chest1/shoulder.R/upper_arm.R/forearm.R/hand.R/f_middle.01.R/f_middle.02.R
    m_Weight: 0
  - m_Path: Unity compliant skeleton/hips/spine/chest/chest1/shoulder.R/upper_arm.R/forearm.R/hand.R/f_middle.01.R/f_middle.02.R/f_middle.03.R
    m_Weight: 0
  - m_Path: Unity compliant skeleton/hips/spine/chest/chest1/shoulder.R/upper_arm.R/forearm.R/hand.R/f_pinky.01.R
    m_Weight: 0
  - m_Path: Unity compliant skeleton/hips/spine/chest/chest1/shoulder.R/upper_arm.R/forearm.R/hand.R/f_pinky.01.R/f_pinky.02.R
    m_Weight: 0
  - m_Path: Unity compliant skeleton/hips/spine/chest/chest1/shoulder.R/upper_arm.R/forearm.R/hand.R/f_pinky.01.R/f_pinky.02.R/f_pinky.03.R
    m_Weight: 0
  - m_Path: Unity compliant skeleton/hips/spine/chest/chest1/shoulder.R/upper_arm.R/forearm.R/hand.R/f_ring.01.R
    m_Weight: 0
  - m_Path: Unity compliant skeleton/hips/spine/chest/chest1/shoulder.R/upper_arm.R/forearm.R/hand.R/f_ring.01.R/f_ring.02.R
    m_Weight: 0
  - m_Path: Unity compliant skeleton/hips/spine/chest/chest1/shoulder.R/upper_arm.R/forearm.R/hand.R/f_ring.01.R/f_ring.02.R/f_ring.03.R
    m_Weight: 0
  - m_Path: Unity compliant skeleton/hips/spine/chest/chest1/shoulder.R/upper_arm.R/forearm.R/hand.R/thumb.01.R
    m_Weight: 0
  - m_Path: Unity compliant skeleton/hips/spine/chest/chest1/shoulder.R/upper_arm.R/forearm.R/hand.R/thumb.01.R/thumb.02.R
    m_Weight: 0
  - m_Path: Unity compliant skeleton/hips/spine/chest/chest1/shoulder.R/upper_arm.R/forearm.R/hand.R/thumb.01.R/thumb.02.R/thumb.03.R
    m_Weight: 0
  - m_Path: Unity compliant skeleton/hips/thigh.L
    m_Weight: 0
  - m_Path: Unity compliant skeleton/hips/thigh.L/shin.L
    m_Weight: 0
  - m_Path: Unity compliant skeleton/hips/thigh.L/shin.L/foot.L
    m_Weight: 0
  - m_Path: Unity compliant skeleton/hips/thigh.L/shin.L/foot.L/toe.L
    m_Weight: 0
  - m_Path: Unity compliant skeleton/hips/thigh.R
    m_Weight: 0
  - m_Path: Unity compliant skeleton/hips/thigh.R/shin.R
    m_Weight: 0
  - m_Path: Unity compliant skeleton/hips/thigh.R/shin.R/foot.R
    m_Weight: 0
  - m_Path: Unity compliant skeleton/hips/thigh.R/shin.R/foot.R/toe.R
    m_Weight: 0
