%YAML 1.1
%TAG !u! tag:unity3d.com,2011:
--- !u!21 &2100000
Material:
  serializedVersion: 6
  m_ObjectHideFlags: 0
  m_CorrespondingSourceObject: {fileID: 0}
  m_PrefabInstance: {fileID: 0}
  m_PrefabAsset: {fileID: 0}
  m_Name: Terrain_Cold
  m_Shader: {fileID: 4800000, guid: 197902f254283154b8246622603e4b81, type: 3}
  m_ShaderKeywords: 
  m_LightmapFlags: 4
  m_EnableInstancingVariants: 0
  m_DoubleSidedGI: 0
  m_CustomRenderQueue: -1
  stringTagMap: {}
  disabledShaderPasses: []
  m_SavedProperties:
    serializedVersion: 3
    m_TexEnvs:
    - _BumpMap:
        m_Texture: {fileID: 0}
        m_Scale: {x: 1, y: 1}
        m_Offset: {x: 0, y: 0}
    - _Control:
        m_Texture: {fileID: 2800000, guid: 808c724370012d049bea7668c4318f3f, type: 3}
        m_Scale: {x: 1, y: 1}
        m_Offset: {x: 0, y: 0}
    - _DetailAlbedoMap:
        m_Texture: {fileID: 0}
        m_Scale: {x: 1, y: 1}
        m_Offset: {x: 0, y: 0}
    - _DetailMask:
        m_Texture: {fileID: 0}
        m_Scale: {x: 1, y: 1}
        m_Offset: {x: 0, y: 0}
    - _DetailNormalMap:
        m_Texture: {fileID: 0}
        m_Scale: {x: 1, y: 1}
        m_Offset: {x: 0, y: 0}
    - _EmissionMap:
        m_Texture: {fileID: 0}
        m_Scale: {x: 1, y: 1}
        m_Offset: {x: 0, y: 0}
    - _MainTex:
        m_Texture: {fileID: 0}
        m_Scale: {x: 1, y: 1}
        m_Offset: {x: 0, y: 0}
    - _MetallicGlossMap:
        m_Texture: {fileID: 0}
        m_Scale: {x: 1, y: 1}
        m_Offset: {x: 0, y: 0}
    - _Normal0:
        m_Texture: {fileID: 2800000, guid: f0465c816db0a7d45bc908b0c3fa31c6, type: 3}
        m_Scale: {x: 200, y: 200}
        m_Offset: {x: 0, y: 0}
    - _Normal1:
        m_Texture: {fileID: 2800000, guid: 5a2a364351bbb2245a45c344799805a7, type: 3}
        m_Scale: {x: 200, y: 200}
        m_Offset: {x: 0, y: 0}
    - _Normal2:
        m_Texture: {fileID: 2800000, guid: dc799eaceb0934442bdad22840e196b3, type: 3}
        m_Scale: {x: 200, y: 200}
        m_Offset: {x: 0, y: 0}
    - _Occlusion0:
        m_Texture: {fileID: 2800000, guid: 5e638ad4e1e47a841abb981a51e18be6, type: 3}
        m_Scale: {x: 200, y: 200}
        m_Offset: {x: 0, y: 0}
    - _Occlusion1:
        m_Texture: {fileID: 2800000, guid: 50a9912b7f5f8c64cb1bc1f80aa49e17, type: 3}
        m_Scale: {x: 200, y: 200}
        m_Offset: {x: 0, y: 0}
    - _Occlusion2:
        m_Texture: {fileID: 2800000, guid: 8379e4b19ff906241a766c7b5609a42d, type: 3}
        m_Scale: {x: 200, y: 200}
        m_Offset: {x: 0, y: 0}
    - _OcclusionMap:
        m_Texture: {fileID: 0}
        m_Scale: {x: 1, y: 1}
        m_Offset: {x: 0, y: 0}
    - _ParallaxMap:
        m_Texture: {fileID: 0}
        m_Scale: {x: 1, y: 1}
        m_Offset: {x: 0, y: 0}
    - _Splat0:
        m_Texture: {fileID: 2800000, guid: 9c30581f43556f545a014cf4d9179265, type: 3}
        m_Scale: {x: 200, y: 200}
        m_Offset: {x: 0, y: 0}
    - _Splat1:
        m_Texture: {fileID: 2800000, guid: 701e742064e3328459c1ceebcaaf2f6c, type: 3}
        m_Scale: {x: 200, y: 200}
        m_Offset: {x: 0, y: 0}
    - _Splat2:
        m_Texture: {fileID: 2800000, guid: 1f97ea21868807847aafc8516834ded7, type: 3}
        m_Scale: {x: 200, y: 200}
        m_Offset: {x: 0, y: 0}
    m_Floats:
    - _BumpScale: 1
    - _Cutoff: 0.5
    - _DetailNormalMapScale: 1
    - _DstBlend: 0
    - _GlossMapScale: 1
    - _Glossiness: 0.5
    - _GlossyReflections: 1
    - _Metallic: 0
    - _Mode: 0
    - _OcclusionStrength: 1
    - _Parallax: 0.02
    - _SmoothnessTextureChannel: 0
    - _SpecularHighlights: 1
    - _SrcBlend: 1
    - _Stren0: 1
    - _Stren1: 1
    - _Stren2: 1
    - _UVSec: 0
    - _ZWrite: 1
    m_Colors:
    - _Color: {r: 1, g: 1, b: 1, a: 1}
    - _EmissionColor: {r: 0, g: 0, b: 0, a: 1}
  m_BuildTextureStacks: []
