%YAML 1.1
%TAG !u! tag:unity3d.com,2011:
--- !u!1045 &1
EditorBuildSettings:
  m_ObjectHideFlags: 0
  serializedVersion: 2
  m_Scenes: []
  m_configObjects:
    Unity.XR.Oculus.Settings: {fileID: 11400000, guid: bfa1182bd221b4ca89619141f66f1260,
      type: 2}
    Unity.XR.OpenVR.Settings: {fileID: 11400000, guid: c4580bb047fd577449cbfc908111edd9,
      type: 2}
    Unity.XR.WindowsMR.Settings: {fileID: 11400000, guid: dc5a169419fa04987b057f65238cf3ba,
      type: 2}
    UnityEditor.XR.ARCore.ARCoreSettings: {fileID: 11400000, guid: 3e114b3834671134c8eb9b0f39ba397b,
      type: 2}
    UnityEditor.XR.ARKit.ARKitSettings: {fileID: 11400000, guid: c3e2386bf9240e64b859d66512c01e9c,
      type: 2}
    com.unity.xr.magicleap.magic_leap_settings: {fileID: 11400000, guid: 378c16ac66f54d642b3fb119342571d9,
      type: 2}
    com.unity.xr.management.loader_settings: {fileID: 11400000, guid: 1a4c68ca72a83449f938d669337cb305,
      type: 2}
    com.unity.xr.openxr.settings4: {fileID: 11400000, guid: 0f1ce0f1f6880e949aa47b4228e13080,
      type: 2}
